<?xml version="1.0" encoding="utf-8"?>
<!-- Generator: Adobe Illustrator 19.2.1, SVG Export Plug-In . SVG Version: 6.00 Build 0)  -->
<svg version="1.1" id="Layer_1" xmlns="http://www.w3.org/2000/svg" xmlns:xlink="http://www.w3.org/1999/xlink" x="0px" y="0px"
	 width="32px" height="32px" viewBox="0 0 32 32" style="enable-background:new 0 0 32 32;" xml:space="preserve">
<style type="text/css">
	.st0{fill:#FFFFFF;}
</style>
<path class="st0" d="M19.7,6.7h4.2V0h-5.5c-5.4,0-7.3,3.7-7.3,7.1L11,10.2H8.1v6.5H11V32h8V16.7h4.4v-6.5H19V7.3
	C19,6.8,19.3,6.7,19.7,6.7z M21.9,11.6l0.1,3.6h-4.4l-0.1,15.3h-5.1V15.3H9.5v-3.6h2.9l0.2-4.5c0-1.3,0.4-5.7,5.7-5.7h4.1v3.8h-2.8
	c-1,0-2.1,0.7-2.1,2.2l-0.1,4.2h4.5V11.6z"/>
</svg>
