<?xml version="1.0" encoding="utf-8"?>
<!-- Generator: Adobe Illustrator 19.2.1, SVG Export Plug-In . SVG Version: 6.00 Build 0)  -->
<svg version="1.1" id="Layer_1" xmlns="http://www.w3.org/2000/svg" xmlns:xlink="http://www.w3.org/1999/xlink" x="0px" y="0px"
	 width="32px" height="32px" viewBox="0 0 32 32" style="enable-background:new 0 0 32 32;" xml:space="preserve">
<style type="text/css">
	.st0{fill:#FFFFFF;}
</style>
<g>
	<path class="st0" d="M23.2,9.6c-2.7,0-4.7,1-6,2.1v-0.5c0-0.5-0.3-0.8-0.8-0.8h-5.1c-0.2,0-0.4,0.1-0.6,0.3
		c-0.2,0.2-0.3,0.3-0.3,0.6c0.1,1.5,0.1,3.3,0.1,5.3v14.7c0,0.3,0.1,0.4,0.3,0.6c0.2,0.2,0.3,0.3,0.6,0.3h5.9c0.5,0,0.8-0.4,0.8-0.8
		V19.5c0-0.2,0-0.3,0-0.5c0-0.3-0.1-0.8,0-0.9c0.3-0.8,1.5-1.8,2.9-1.8c1.9,0,3,1.2,3,3.2v11.6c0,0.5,0.3,0.8,0.8,0.8h5.9
		c0.5,0,0.8-0.3,0.8-0.8V18.7C31.6,13,28.4,9.6,23.2,9.6z M29.9,30.3h-4.1V19.5c0-2.9-1.9-4.9-4.7-4.9c-2.2,0-3.9,1.4-4.5,2.9
		c-0.2,0.5-0.2,1-0.2,1.6c0,0.2,0,0.3,0,0.4v10.8h-4.2V17.7v-1.2c0-1.7,0-3.1,0-4.5h3.4v1.7c0,0.5,0.3,0.8,0.8,0.8
		c0.3,0,0.6-0.2,0.8-0.4c0.8-1.2,2.9-2.9,6-2.9c2.5,0,6.7,0.9,6.7,7.4C29.9,18.6,29.9,30.3,29.9,30.3z"/>
	<path class="st0" d="M7.2,9.3H1.3c-0.5,0-0.8,0.3-0.8,0.8v21.1c0,0.5,0.3,0.8,0.8,0.8h5.9c0.3,0,0.4-0.1,0.6-0.3
		C7.9,31.6,8,31.4,8,31.2V10.1C8,9.6,7.7,9.3,7.2,9.3z M6.3,30.3H2.1V10.9h4.2C6.3,10.9,6.3,30.3,6.3,30.3z"/>
	<path class="st0" d="M4.2,0C2,0,0.4,1.6,0.4,3.8S2,7.6,4.1,7.6C6.4,7.6,8,6,8,3.8C7.9,1.5,6.4,0,4.2,0z M4.1,6
		C2.9,6,1.9,5.1,1.9,3.8s0.9-2.2,2.3-2.2s2.2,0.8,2.2,2.2C6.4,5.1,5.5,6,4.1,6z"/>
</g>
</svg>
